{
  "clubs": [
    {
      "clubID": 1,
      "clubName": "sample String 2",
      "shortName": "sample String 3",
      "colour": "sample String 4",
      "type": "sample String 5",
      "make": "sample String 6",
      "model": "sample String 7"
    }
  ],
  "clubSeasons": [
    {
      "season": 1,
      "clubLastXRoundGroups": [
        {
          "numRounds": 1,
          "shotType": [
            {
              "shotType": "sample String 1",
              "clubStats": [
                {
                  "clubID": 1,
                  "avg": 2.1,
                  "pAvg": 3.1,
                  "long": 4.1,
                  "use": 5.1
                }
              ]
            }
          ]
        }
      ]
    }
  ]
}
