{
  "season": 1,
  "avgScoreVsPar": 2.1,
  "avgPar3Score": 3.1,
  "avgPar4Score": 4.1,
  "avgPar5Score": 5.1,
  "avgPuttsPerHole": 6.1,
  "fairwaysInRegulation": 7.1,
  "greensInRegulation": 8.1,
  "upDown": 9.1
}
