[
  {
    "clubID": 1,
    "clubName": "sample String 2",
    "type": "sample String 3",
    "shortName": "sample String 4",
    "colour": "sample String 5",
    "make": "sample String 6",
    "model": "sample String 7",
    "used": true,
    "assigned": "sample String 9",
    "deleted": true,
    "updatedDate": "2018-07-19T10:54:51.367+00:00",
    "assignmentDate": "2018-07-19T10:54:51.367+00:00"
  }
]
