{
  "clubs": [
    {
      "clubID": 1,
      "clubName": "sample String 2",
      "shortName": "sample String 3",
      "colour": "sample String 4",
      "type": "sample String 5",
      "make": "sample String 6",
      "model": "sample String 7"
    }
  ],
  "approachShots": [
    {
      "approchesShotID": 1,
      "clubID": 2,
      "roundID": 3,
      "holeNumber": 4,
      "dateTime": "2018-07-23T15:14:29.74+00:00",
      "courseID": 6,
      "courseName": "sample String 7",
      "greenHit": true,
      "pinVerticalOffset": 9.1,
      "pinHorizontalOffset": 10.1,
      "distanceToPin": 11.1,
      "endDistanceToPin": 12.1,
      "distanceHit": 13.1,
      "shotsToFinish": 14,
      "holeResult": "sample String 15",
      "fromSurface": "sample String 16"
    }
  ],
  "approachSeasons": [
    {
      "season": 1,
      "approachLastXRoundsGroups": [
        {
          "numRounds": 1,
          "approachesRanges": [
            {
              "minDistance": 1.1,
              "maxDistance": 2.1,
              "approachLies": [
                {
                  "lie": "sample String 1",
                  "approachClubs": [
                    {
                      "clubID": 1,
                      "inside6ft": 2.1,
                      "inside20ft": 3.1,
                      "greenSuccess": 4.1,
                      "shotsToFinish": 5.1,
                      "avgProximityToHole": 6.1,
                      "missFrontLeft": 7.1,
                      "missFrontRight": 8.1,
                      "missBackLeft": 9.1,
                      "missBackRight": 10.1,
                      "hitFrontLeft": 11.1,
                      "hitFrontRight": 12.1,
                      "hitBackLeft": 13.1,
                      "hitBackRight": 14.1,
                      "usage": 15.1
                    }
                  ],
                  "allApproachesShotClubs": {
                    "inside6ft": 1.1,
                    "inside20ft": 2.1,
                    "greenSuccess": 3.1,
                    "shotsToFinish": 4.1,
                    "avgProximityToHole": 5.1,
                    "missFrontLeft": 6.1,
                    "missFrontRight": 7.1,
                    "missBackLeft": 8.1,
                    "missBackRight": 9.1,
                    "hitFrontLeft": 10.1,
                    "hitFrontRight": 11.1,
                    "hitBackLeft": 12.1,
                    "hitBackRight": 13.1,
                    "usage": 14.1
                  }
                }
              ]
            }
          ]
        }
      ]
    }
  ]
}
