{
  "clubs": [
    {
      "clubID": 1,
      "clubName": "sample String 2",
      "shortName": "sample String 3",
      "colour": "sample String 4",
      "type": "sample String 5",
      "make": "sample String 6",
      "model": "sample String 7"
    }
  ],
  "clubSeasons": [
    {
      "season": 1,
      "clubLastXRoundGroups": [
        {
          "numRounds": 1,
          "clubStats": [
            {
              "clubID": 1,
              "avgDistance": 2.1,
              "performanceDistance": 3.1,
              "longestDistance": 4.1,
              "usage": 5.1
            }
          ]
        }
      ]
    }
  ]
}
