{
  "clubs": [
    {
      "clubID": 1,
      "clubName": "sample String 2",
      "shortName": "sample String 3",
      "colour": "sample String 4",
      "type": "sample String 5",
      "make": "sample String 6",
      "model": "sample String 7"
    }
  ],
  "puttingSeasons": [
    {
      "season": 1,
      "puttingLastXRoundsGroups": [
        {
          "numRounds": 1,
          "puttingRanges": [
            {
              "minDistance": 1.1,
              "maxDistance": 2.1,
              "puttingClubs": [
                {
                  "clubID": 1,
                  "avgPuttsPerRound": 2.1,
                  "avgPuttsIncOffGreen": 3.1,
                  "avgHolesPer3Putts": 4.1,
                  "putts0Per": 5.1,
                  "putts1Per": 6.1,
                  "putts2Per": 7.1,
                  "putts3Per": 8.1,
                  "putts4OrMorePer": 9.1,
                  "make": 10.1,
                  "shotsToFinish": 11.1,
                  "usage": 12.1
                }
              ],
              "allPuttingClubs": {
                "avgPuttsPerRound": 1.1,
                "avgPuttsIncOffGreen": 2.1,
                "avgHolesPer3Putts": 3.1,
                "putts0Per": 4.1,
                "putts1Per": 5.1,
                "putts2Per": 6.1,
                "putts3Per": 7.1,
                "putts4OrMorePer": 8.1,
                "make": 9.1,
                "shotsToFinish": 10.1,
                "usage": 11.1
              }
            }
          ]
        }
      ]
    }
	]
}
