{
  "roundID": 1,
  "handicap": 0,
  "signedOff": true,
  "excludeFromStats": true,
  "tees": {
    "chosenTee": {
      "name": "sample String 1",
      "approved": true,
      "userapproved": true,
      "pars": [
        1,
        2
      ]
    },
    "availableTees": [
      {
        "name": "sample String 1",
        "approved": true,
        "userapproved": true,
        "pars": [
          1,
          2
        ]
      }
    ]
  }
}
